<?xml version="1.0" encoding="UTF-8" standalone="no"?>
<!-- Created with Inkscape (http://www.inkscape.org/) -->

<svg
   xmlns:dc="http://purl.org/dc/elements/1.1/"
   xmlns:cc="http://creativecommons.org/ns#"
   xmlns:rdf="http://www.w3.org/1999/02/22-rdf-syntax-ns#"
   xmlns:svg="http://www.w3.org/2000/svg"
   xmlns="http://www.w3.org/2000/svg"
   xmlns:sodipodi="http://sodipodi.sourceforge.net/DTD/sodipodi-0.dtd"
   xmlns:inkscape="http://www.inkscape.org/namespaces/inkscape"
   width="210mm"
   height="297mm"
   viewBox="0 0 210 297"
   version="1.1"
   id="svg5789"
   sodipodi:docname="logo2.svg"
   inkscape:version="0.92.3 (2405546, 2018-03-11)">
  <defs
     id="defs5783">
    <clipPath
       clipPathUnits="userSpaceOnUse"
       id="clipPath3731">
      <path
         d="M 0,595.276 H 841.89 V 0 H 0 Z"
         id="path3729"
         inkscape:connector-curvature="0" />
    </clipPath>
  </defs>
  <sodipodi:namedview
     id="base"
     pagecolor="#ffffff"
     bordercolor="#666666"
     borderopacity="1.0"
     inkscape:pageopacity="0.0"
     inkscape:pageshadow="2"
     inkscape:zoom="1.4"
     inkscape:cx="219.60305"
     inkscape:cy="603.19256"
     inkscape:document-units="mm"
     inkscape:current-layer="g3725"
     showgrid="false"
     inkscape:window-width="1920"
     inkscape:window-height="1017"
     inkscape:window-x="-8"
     inkscape:window-y="-8"
     inkscape:window-maximized="1"
     showguides="true"
     inkscape:guide-bbox="true">
    <sodipodi:guide
       position="58.442648,142.76334"
       orientation="0,1"
       id="guide7102"
       inkscape:locked="false" />
    <sodipodi:guide
       position="32.316964,125.11012"
       orientation="0,1"
       id="guide7104"
       inkscape:locked="false" />
  </sodipodi:namedview>
  <metadata
     id="metadata5786">
    <rdf:RDF>
      <cc:Work
         rdf:about="">
        <dc:format>image/svg+xml</dc:format>
        <dc:type
           rdf:resource="http://purl.org/dc/dcmitype/StillImage" />
        <dc:title></dc:title>
      </cc:Work>
    </rdf:RDF>
  </metadata>
  <g
     inkscape:label="Layer 1"
     inkscape:groupmode="layer"
     id="layer1">
    <g
       transform="matrix(0.35277777,0,0,-0.35277777,-111.17831,262.40919)"
       id="g3725" />
    <g
       id="g5097"
       transform="matrix(0.35277777,0,0,-0.35277777,46.132537,154.23649)"
       style="fill:#df0030;fill-opacity:0.97989951">
      <path
         d="m 0,0 c -0.072,-3.432 -0.127,-6.636 -0.163,-9.614 -0.036,-2.978 -0.054,-5.756 -0.054,-8.334 0,-12.165 -4.803,-18.248 -14.408,-18.248 -2.506,0 -4.652,0.359 -6.441,1.076 -1.788,0.717 -3.259,1.815 -4.413,3.295 -1.152,1.48 -1.997,3.346 -2.532,5.597 -0.536,2.251 -0.803,4.912 -0.803,7.98 0,2.687 -0.018,5.543 -0.055,8.566 -0.036,3.023 -0.091,6.25 -0.163,9.682 h 5.175 c -0.218,-6.917 -0.327,-12.337 -0.327,-16.259 0,-3.16 0.154,-5.734 0.463,-7.721 0.309,-1.989 0.858,-3.646 1.647,-4.971 0.791,-1.326 1.785,-2.265 2.982,-2.819 1.199,-0.554 2.725,-0.831 4.576,-0.831 1.943,0 3.522,0.277 4.739,0.831 1.216,0.554 2.207,1.471 2.968,2.751 0.763,1.28 1.308,2.923 1.635,4.929 0.326,2.007 0.49,4.634 0.49,7.885 0,1.924 -0.032,4.226 -0.095,6.904 -0.065,2.678 -0.159,5.779 -0.286,9.301 z"
         style="fill:#df0030;fill-opacity:0.97989951;fill-rule:nonzero;stroke:none"
         id="path5099"
         inkscape:connector-curvature="0" />
    </g>
    <g
       id="g5101"
       transform="matrix(0.35277777,0,0,-0.35277777,55.381241,157.89709)"
       style="fill:#df0030;fill-opacity:0.97989951">
      <path
         d="m 0,0 c 0,4.666 -3.187,7 -9.56,7 -1.561,0 -3.313,-0.137 -5.256,-0.409 0.127,-2.96 0.191,-7.571 0.191,-13.836 0.635,-0.036 1.416,-0.054 2.342,-0.054 C -4.095,-7.299 0,-4.866 0,0 m 4.549,1.58 c 0,-4.14 -1.571,-7.236 -4.713,-9.288 -3.141,-2.052 -7.362,-3.077 -12.664,-3.077 -0.672,0 -1.252,0.017 -1.742,0.054 0,-3.958 0.144,-8.743 0.435,-14.353 h -5.229 c 0.272,5.156 0.409,11.366 0.409,18.629 0,6.246 -0.137,11.856 -0.409,16.831 h 3.894 c 0.417,0 1.612,0.028 3.581,0.082 1.971,0.055 3.646,0.082 5.026,0.082 3.486,0 6.259,-0.794 8.32,-2.383 C 3.518,6.568 4.549,4.375 4.549,1.58"
         style="fill:#df0030;fill-opacity:0.97989951;fill-rule:nonzero;stroke:none"
         id="path5103"
         inkscape:connector-curvature="0" />
    </g>
    <g
       id="g5105"
       transform="matrix(0.35277777,0,0,-0.35277777,65.273485,157.89709)"
       style="fill:#df0030;fill-opacity:0.97989951">
      <path
         d="m 0,0 c 0,4.666 -3.186,7 -9.559,7 -1.562,0 -3.314,-0.137 -5.256,-0.409 0.127,-2.96 0.19,-7.571 0.19,-13.836 0.636,-0.036 1.416,-0.054 2.342,-0.054 C -4.094,-7.299 0,-4.866 0,0 m 4.549,1.58 c 0,-4.14 -1.57,-7.236 -4.712,-9.288 -3.142,-2.052 -7.362,-3.077 -12.664,-3.077 -0.672,0 -1.253,0.017 -1.743,0.054 0,-3.958 0.144,-8.743 0.435,-14.353 h -5.228 c 0.271,5.156 0.408,11.366 0.408,18.629 0,6.246 -0.137,11.856 -0.408,16.831 h 3.894 c 0.417,0 1.612,0.028 3.581,0.082 1.97,0.055 3.646,0.082 5.025,0.082 3.486,0 6.259,-0.794 8.32,-2.383 C 3.518,6.568 4.549,4.375 4.549,1.58"
         style="fill:#df0030;fill-opacity:0.97989951;fill-rule:nonzero;stroke:none"
         id="path5107"
         inkscape:connector-curvature="0" />
    </g>
    <g
       id="g5109"
       transform="matrix(0.35277777,0,0,-0.35277777,75.636685,163.50826)">
      <path
         d="m 0,0 c 0,-6.718 -4.675,-10.077 -14.026,-10.077 -3.414,0 -6.446,0.39 -9.096,1.171 l 0.953,4.276 c 3.05,-1.053 5.945,-1.579 8.688,-1.579 6.173,0 9.259,1.743 9.259,5.229 0,1.761 -0.799,3.268 -2.396,4.521 -1.071,0.834 -3.178,1.951 -6.319,3.35 -3.304,1.47 -5.62,2.823 -6.945,4.058 -1.834,1.706 -2.75,3.849 -2.75,6.427 0,2.687 0.935,4.875 2.805,6.564 2.088,1.888 5.039,2.832 8.851,2.832 4.321,0 7.282,-0.281 8.879,-0.844 l -0.654,-4.33 c -2.76,0.871 -5.691,1.307 -8.797,1.307 -4.666,0 -6.999,-1.562 -6.999,-4.684 0,-1.508 0.671,-2.769 2.015,-3.786 0.872,-0.636 2.797,-1.598 5.774,-2.887 3.396,-1.471 5.847,-2.869 7.354,-4.194 C -1.135,5.356 0,2.905 0,0"
         style="fill:#231f20;fill-opacity:1;fill-rule:nonzero;stroke:none"
         id="path5111"
         inkscape:connector-curvature="0" />
    </g>
    <g
       id="g5113"
       transform="matrix(0.35277777,0,0,-0.35277777,83.943825,161.44243)">
      <path
         d="M 0,0 C -4.268,10.658 -6.4,16.323 -6.4,16.995 H -6.699 C -6.699,16.432 -8.906,10.767 -13.318,0 Z M 10.432,-15.034 H 4.685 c 0,1.216 -1.144,5.038 -3.432,11.466 h -15.715 c -2.251,-6.337 -3.377,-10.159 -3.377,-11.466 h -5.501 c 0,0.671 2.342,6.477 7.026,17.417 4.685,10.939 7.027,16.954 7.027,18.043 h 6.318 c 0,-1.071 2.234,-6.999 6.7,-17.784 4.466,-10.786 6.701,-16.678 6.701,-17.676"
         style="fill:#231f20;fill-opacity:1;fill-rule:nonzero;stroke:none"
         id="path5115"
         inkscape:connector-curvature="0" />
    </g>
    <g
       id="g5117"
       transform="matrix(0.35277777,0,0,-0.35277777,95.085255,157.73379)">
      <path
         d="m 0,0 c 0,4.321 -2.924,6.482 -8.77,6.482 -2.088,0 -3.84,-0.118 -5.256,-0.354 0.126,-3.159 0.19,-7.454 0.19,-12.882 1.09,-0.037 2.133,-0.055 3.132,-0.055 C -3.568,-6.809 0,-4.54 0,0 M 8.334,-25.547 H 3.077 c -1.743,5.211 -3.014,8.661 -3.813,10.35 -1.017,2.124 -2.17,3.495 -3.459,4.112 -1.017,0.49 -2.842,0.735 -5.474,0.735 -1.544,0 -2.914,-0.018 -4.112,-0.054 0,-5.865 0.109,-10.912 0.326,-15.143 h -5.066 c 0.273,5.629 0.41,11.838 0.41,18.629 0,6.391 -0.137,12.001 -0.41,16.832 h 3.841 c 0.817,0 1.852,0.027 3.104,0.082 1.254,0.054 2.687,0.081 4.304,0.081 7.952,0 11.928,-2.742 11.928,-8.225 0,-4.558 -2.232,-7.762 -6.699,-9.614 v -0.273 c 1.997,-0.599 3.613,-1.987 4.848,-4.167 1.035,-1.816 2.877,-6.264 5.529,-13.345"
         style="fill:#231f20;fill-opacity:1;fill-rule:nonzero;stroke:none"
         id="path5119"
         inkscape:connector-curvature="0" />
    </g>
    <g
       id="g5121"
       transform="matrix(0.35277777,0,0,-0.35277777,36.462159,169.36081)">
      <path
         d="M 0,0 H -3.01 V 0.492 H 3.599 V 0 H 0.588 V -7.592 H 0 Z"
         style="fill:#231f20;fill-opacity:1;fill-rule:nonzero;stroke:none"
         id="path5123"
         inkscape:connector-curvature="0" />
    </g>
    <g
       id="g5125"
       transform="matrix(0.35277777,0,0,-0.35277777,39.493154,170.86287)">
      <path
         d="M 0,0 -1.141,2.843 C -1.355,3.382 -1.464,3.73 -1.584,4.126 H -1.607 C -1.728,3.718 -1.859,3.358 -2.052,2.879 L -3.203,0 Z m -3.406,-0.491 -1.115,-2.843 h -0.613 l 3.263,8.084 h 0.575 L 1.942,-3.334 H 1.33 l -1.139,2.843 z"
         style="fill:#231f20;fill-opacity:1;fill-rule:nonzero;stroke:none"
         id="path5127"
         inkscape:connector-curvature="0" />
    </g>
    <g
       id="g5129"
       transform="matrix(0.35277777,0,0,-0.35277777,40.907685,169.18717)">
      <path
         d="M 0,0 H 0.588 V -7.592 H 4.594 V -8.084 H 0 Z"
         style="fill:#231f20;fill-opacity:1;fill-rule:nonzero;stroke:none"
         id="path5131"
         inkscape:connector-curvature="0" />
    </g>
    <g
       id="g5133"
       transform="matrix(0.35277777,0,0,-0.35277777,43.253129,169.18717)">
      <path
         d="M 0,0 H 0.588 V -7.592 H 4.594 V -8.084 H 0 Z"
         style="fill:#231f20;fill-opacity:1;fill-rule:nonzero;stroke:none"
         id="path5135"
         inkscape:connector-curvature="0" />
    </g>
    <path
       d="m 45.80523,172.03906 h -0.207433 v -2.85185 h 0.207433 z"
       style="fill:#231f20;fill-opacity:1;fill-rule:nonzero;stroke:none;stroke-width:0.35277775"
       id="path5137"
       inkscape:connector-curvature="0" />
    <g
       id="g5139"
       transform="matrix(0.35277777,0,0,-0.35277777,46.821547,172.03903)">
      <path
         d="M 0,0 V 8.084 H 0.551 L 4.209,3.106 C 4.953,2.099 5.433,1.463 5.853,0.743 L 5.877,0.768 C 5.793,1.703 5.781,2.662 5.781,3.91 V 8.084 H 6.356 V 0 H 5.816 L 2.278,4.81 C 1.595,5.745 0.971,6.597 0.539,7.316 L 0.504,7.292 C 0.563,6.381 0.576,5.517 0.576,4.317 V 0 Z"
         style="fill:#231f20;fill-opacity:1;fill-rule:nonzero;stroke:none"
         id="path5141"
         inkscape:connector-curvature="0" />
    </g>
    <g
       id="g5143"
       transform="matrix(0.35277777,0,0,-0.35277777,50.081285,172.03903)">
      <path
         d="M 0,0 V 8.084 H 0.551 L 4.209,3.106 C 4.953,2.099 5.432,1.463 5.852,0.743 L 5.876,0.768 C 5.792,1.703 5.78,2.662 5.78,3.91 V 8.084 H 6.355 V 0 H 5.816 L 2.277,4.81 C 1.594,5.745 0.971,6.597 0.539,7.316 L 0.503,7.292 C 0.563,6.381 0.574,5.517 0.574,4.317 V 0 Z"
         style="fill:#231f20;fill-opacity:1;fill-rule:nonzero;stroke:none"
         id="path5145"
         inkscape:connector-curvature="0" />
    </g>
    <g
       id="g5147"
       transform="matrix(0.35277777,0,0,-0.35277777,54.906155,170.86287)">
      <path
         d="M 0,0 -1.14,2.843 C -1.355,3.382 -1.464,3.73 -1.583,4.126 H -1.607 C -1.728,3.718 -1.859,3.358 -2.052,2.879 L -3.202,0 Z m -3.406,-0.491 -1.115,-2.843 h -0.613 l 3.263,8.084 h 0.575 L 1.942,-3.334 H 1.331 l -1.139,2.843 z"
         style="fill:#231f20;fill-opacity:1;fill-rule:nonzero;stroke:none"
         id="path5149"
         inkscape:connector-curvature="0" />
    </g>
    <g
       id="g5151"
       transform="matrix(0.35277777,0,0,-0.35277777,58.194505,169.36081)">
      <path
         d="M 0,0 H -3.01 V 0.492 H 3.599 V 0 H 0.588 V -7.592 H 0 Z"
         style="fill:#231f20;fill-opacity:1;fill-rule:nonzero;stroke:none"
         id="path5153"
         inkscape:connector-curvature="0" />
    </g>
    <g
       id="g5155"
       transform="matrix(0.35277777,0,0,-0.35277777,61.225495,170.86287)">
      <path
         d="M 0,0 -1.14,2.843 C -1.355,3.382 -1.463,3.73 -1.584,4.126 H -1.607 C -1.727,3.718 -1.859,3.358 -2.051,2.879 L -3.203,0 Z m -3.406,-0.491 -1.115,-2.843 h -0.612 l 3.262,8.084 h 0.576 L 1.943,-3.334 H 1.331 l -1.14,2.843 z"
         style="fill:#231f20;fill-opacity:1;fill-rule:nonzero;stroke:none"
         id="path5157"
         inkscape:connector-curvature="0" />
    </g>
    <g
       id="g5159"
       transform="matrix(0.35277777,0,0,-0.35277777,62.640035,172.03903)">
      <path
         d="M 0,0 V 8.084 H 0.553 L 4.211,3.106 C 4.954,2.099 5.434,1.463 5.854,0.743 L 5.877,0.768 C 5.793,1.703 5.781,2.662 5.781,3.91 V 8.084 H 6.357 V 0 H 5.817 L 2.279,4.81 C 1.596,5.745 0.973,6.597 0.541,7.316 L 0.504,7.292 C 0.564,6.381 0.576,5.517 0.576,4.317 V 0 Z"
         style="fill:#231f20;fill-opacity:1;fill-rule:nonzero;stroke:none"
         id="path5161"
         inkscape:connector-curvature="0" />
    </g>
    <g
       id="g5163"
       transform="matrix(0.35277777,0,0,-0.35277777,66.504745,169.36081)">
      <path
         d="M 0,0 H -3.01 V 0.492 H 3.599 V 0 H 0.588 V -7.592 H 0 Z"
         style="fill:#231f20;fill-opacity:1;fill-rule:nonzero;stroke:none"
         id="path5165"
         inkscape:connector-curvature="0" />
    </g>
    <g
       id="g5167"
       transform="matrix(0.35277777,0,0,-0.35277777,68.232475,171.70484)">
      <path
         d="m 0,0 c 0.527,-0.359 1.224,-0.6 2.003,-0.6 1.307,0 2.099,0.696 2.099,1.692 0,0.923 -0.468,1.451 -1.824,1.883 C 0.659,3.49 0.012,4.15 0.012,5.205 0.012,6.393 1.031,7.28 2.519,7.28 3.37,7.28 4.005,7.076 4.317,6.872 L 4.089,6.381 C 3.862,6.536 3.286,6.801 2.495,6.801 1.044,6.801 0.587,5.925 0.587,5.289 0.587,4.426 1.103,3.934 2.411,3.515 3.886,3.034 4.677,2.459 4.677,1.151 c 0,-1.115 -0.815,-2.242 -2.746,-2.242 -0.768,0 -1.667,0.239 -2.159,0.6 z"
         style="fill:#231f20;fill-opacity:1;fill-rule:nonzero;stroke:none"
         id="path5169"
         inkscape:connector-curvature="0" />
    </g>
    <g
       id="g5171"
       transform="matrix(0.35277777,0,0,-0.35277777,70.945835,169.18717)">
      <path
         d="m 0,0 v -4.666 c 0,-2.194 1.091,-3.07 2.435,-3.07 1.5,0 2.566,0.935 2.566,3.07 V 0 h 0.588 v -4.618 c 0,-2.603 -1.475,-3.61 -3.19,-3.61 -1.572,0 -2.986,0.912 -2.986,3.55 V 0 Z"
         style="fill:#231f20;fill-opacity:1;fill-rule:nonzero;stroke:none"
         id="path5173"
         inkscape:connector-curvature="0" />
    </g>
    <g
       id="g5175"
       transform="matrix(0.35277777,0,0,-0.35277777,75.309725,170.86287)">
      <path
         d="M 0,0 -1.14,2.843 C -1.355,3.382 -1.463,3.73 -1.584,4.126 H -1.607 C -1.727,3.718 -1.859,3.358 -2.051,2.879 L -3.203,0 Z m -3.406,-0.491 -1.115,-2.843 h -0.612 l 3.262,8.084 h 0.576 L 1.943,-3.334 H 1.331 l -1.14,2.843 z"
         style="fill:#231f20;fill-opacity:1;fill-rule:nonzero;stroke:none"
         id="path5177"
         inkscape:connector-curvature="0" />
    </g>
    <g
       id="g5179"
       transform="matrix(0.35277777,0,0,-0.35277777,76.724295,169.18717)">
      <path
         d="m 0,0 h 0.588 v -4.138 h 0.049 c 0.24,0.312 0.504,0.575 0.731,0.816 L 4.594,0 H 5.338 L 1.932,-3.442 5.697,-8.084 H 4.966 L 1.523,-3.814 0.588,-4.75 V -8.084 H 0 Z"
         style="fill:#231f20;fill-opacity:1;fill-rule:nonzero;stroke:none"
         id="path5181"
         inkscape:connector-curvature="0" />
    </g>
    <g
       id="g5183"
       transform="matrix(0.35277777,0,0,-0.35277777,80.889405,170.86287)">
      <path
         d="M 0,0 -1.141,2.843 C -1.355,3.382 -1.464,3.73 -1.584,4.126 H -1.607 C -1.728,3.718 -1.859,3.358 -2.052,2.879 L -3.203,0 Z m -3.406,-0.491 -1.115,-2.843 h -0.613 l 3.263,8.084 h 0.575 L 1.942,-3.334 H 1.33 l -1.139,2.843 z"
         style="fill:#231f20;fill-opacity:1;fill-rule:nonzero;stroke:none"
         id="path5185"
         inkscape:connector-curvature="0" />
    </g>
    <g
       id="g5187"
       transform="matrix(0.35277777,0,0,-0.35277777,82.511375,171.86539)">
      <path
         d="m 0,0 c 0.384,-0.061 0.959,-0.072 1.607,-0.072 3.071,0 4.377,1.69 4.377,3.79 C 6.009,5.696 4.737,7.172 1.787,7.172 1.008,7.172 0.42,7.1 0,7.016 Z m -0.588,7.483 c 0.72,0.096 1.524,0.18 2.423,0.18 1.716,0 3.022,-0.468 3.778,-1.295 0.672,-0.731 0.971,-1.596 0.971,-2.639 0,-0.923 -0.275,-2.05 -1.115,-2.95 -0.78,-0.828 -2.147,-1.343 -3.957,-1.343 -0.733,0 -1.405,0.012 -2.1,0.072 z"
         style="fill:#231f20;fill-opacity:1;fill-rule:nonzero;stroke:none"
         id="path5189"
         inkscape:connector-curvature="0" />
    </g>
    <g
       id="g5191"
       transform="matrix(0.35277777,0,0,-0.35277777,87.116745,170.62171)">
      <path
         d="M 0,0 H -3.599 V -3.525 H 0.407 V -4.018 H -4.186 V 4.066 H 0.203 V 3.574 H -3.599 V 0.492 H 0 Z"
         style="fill:#231f20;fill-opacity:1;fill-rule:nonzero;stroke:none"
         id="path5193"
         inkscape:connector-curvature="0" />
    </g>
    <g
       id="g5195"
       transform="matrix(0.35277777,0,0,-0.35277777,89.550385,170.62171)">
      <path
         d="m 0,0 h -3.598 v -3.525 h 4.006 v -0.493 h -4.594 v 8.084 h 4.39 V 3.574 H -3.598 V 0.492 H 0 Z"
         style="fill:#231f20;fill-opacity:1;fill-rule:nonzero;stroke:none"
         id="path5197"
         inkscape:connector-curvature="0" />
    </g>
    <g
       id="g5199"
       transform="matrix(0.35277777,0,0,-0.35277777,93.143955,170.69371)">
      <path
         d="M 0,0 C -0.084,1.2 -0.192,2.759 -0.192,3.622 H -0.216 C -0.54,2.759 -0.911,1.823 -1.427,0.6 L -3.298,-3.813 H -3.742 L -5.493,0.54 C -5.997,1.8 -6.368,2.759 -6.632,3.622 H -6.656 C -6.692,2.687 -6.753,1.212 -6.86,-0.119 l -0.287,-3.694 h -0.577 l 0.648,8.084 h 0.672 l 1.942,-4.822 c 0.408,-1.008 0.72,-1.847 0.96,-2.579 h 0.024 c 0.215,0.684 0.54,1.499 0.995,2.567 l 2.039,4.834 H 0.252 L 0.827,-3.813 H 0.252 Z"
         style="fill:#231f20;fill-opacity:1;fill-rule:nonzero;stroke:none"
         id="path5201"
         inkscape:connector-curvature="0" />
    </g>
    <path
       d="m 94.563355,172.03906 h -0.20708 v -2.85185 h 0.20708 z"
       style="fill:#231f20;fill-opacity:1;fill-rule:nonzero;stroke:none;stroke-width:0.35277775"
       id="path5203"
       inkscape:connector-curvature="0" />
    <g
       id="g5205"
       transform="matrix(0.35277777,0,0,-0.35277777,97.144735,170.86287)">
      <path
         d="M 0,0 -1.139,2.843 C -1.355,3.382 -1.463,3.73 -1.583,4.126 H -1.607 C -1.727,3.718 -1.859,3.358 -2.051,2.879 L -3.202,0 Z m -3.406,-0.491 -1.115,-2.843 h -0.612 l 3.262,8.084 h 0.576 L 1.943,-3.334 H 1.332 l -1.14,2.843 z"
         style="fill:#231f20;fill-opacity:1;fill-rule:nonzero;stroke:none"
         id="path5207"
         inkscape:connector-curvature="0" />
    </g>
    <g
       id="g5209"
       transform="matrix(0.17461373,0,0,-0.17461373,121.08244,167.1974)"
       style="fill:#df0030;fill-opacity:1">
      <path
         d="m 0,0 c 0.267,-0.219 0.506,-0.479 0.707,-0.781 0.575,-0.871 0.009,-2.452 -0.796,-3.056 -1.513,-1.138 -4.272,0.083 -5.707,0.824 -1.646,0.853 -2.943,2.226 -4.414,3.331 -3.205,2.411 -7.596,0.793 -11.319,2.086 -2.268,0.791 -3.933,2.659 -6.201,3.404 -1.23,0.403 -2.68,0.617 -3.976,0.542 -1.19,-0.072 -2.006,-0.833 -2.769,-1.678 -2.641,-2.925 -5.077,-6.037 -7.702,-8.982 -1.617,-1.811 -3.347,-3.53 -4.933,-5.369 -0.902,-1.045 -2.031,-2.532 -1.417,-3.995 0.398,-0.956 1.146,-1.636 1.052,-2.753 -0.099,-1.203 -0.868,-2.287 -1.406,-3.331 -0.89,-1.734 -0.799,-3.945 -1.983,-5.519 -0.408,-0.54 -1.006,-1.092 -1.664,-1.298 -2.031,-0.64 -1.616,2.214 -1.55,3.248 0.07,1.175 0.248,2.34 0.64,3.452 0.758,2.149 1.447,4.362 2.633,6.322 0.759,1.257 1.541,2.527 1.492,4.049 -0.087,2.921 -0.238,5.829 -0.131,8.753 0.085,2.322 0.169,4.787 0.952,7 1.139,3.226 3.048,6.145 4.888,9.008 0.557,0.868 1.125,1.731 1.694,2.594 0.755,1.149 0.976,2.348 0.94,3.712 -0.03,1.156 -0.276,2.24 -0.641,3.331 -0.941,2.793 -1.704,5.643 -2.675,8.428 -0.27,0.774 -0.553,1.543 -0.861,2.302 -0.305,0.751 -0.636,1.487 -1.008,2.206 -0.447,0.861 -1.081,1.604 -1.561,2.445 -0.876,1.543 -1.561,3.262 -1.991,4.984 -0.347,1.382 -0.25,2.804 -0.467,4.198 -0.147,0.93 -0.611,1.725 -1.21,2.437 -0.433,0.514 -0.922,0.974 -1.398,1.45 -2.128,2.127 -1.153,7.207 0.134,7.841 0.881,0.433 1.431,-2.933 1.532,-3.391 0.265,-1.209 0.426,-2.438 0.69,-3.646 0.37,-1.694 1.357,-3.5 2.646,-4.671 0.689,-0.627 1.557,-1.039 2.423,-1.356 3.438,-1.269 5.331,-4.539 6.66,-7.739 0.388,-0.935 0.719,-1.89 1.064,-2.841 0.102,-0.276 0.234,-0.83 0.533,-0.97 0.442,-0.204 0.808,0.525 0.976,0.815 0.41,0.708 0.869,1.387 1.235,2.12 0.501,1 0.483,2.033 0.622,3.112 0.094,0.734 0.199,1.467 0.322,2.196 0.242,1.41 0.549,2.815 1.031,4.163 0.697,1.949 1.869,4.268 3.738,5.336 0.833,0.475 1.899,0.761 2.856,0.611 0.851,-0.136 1.499,-0.71 1.961,-1.417 1.417,-2.173 0.978,-4.443 -0.431,-6.487 -0.685,-0.992 -1.515,-1.862 -2.18,-2.87 -0.513,-0.774 -1.272,-2.16 -2.25,-2.445 -0.659,-0.193 -1.369,-0.074 -2.023,-0.307 -0.613,-0.217 -1.091,-0.773 -1.31,-1.377 -0.321,-0.89 0.208,-1.658 0.865,-2.197 0.352,-0.288 0.743,-0.577 1.168,-0.74 0.438,-0.166 0.806,-0.1 1.252,-0.055 0.277,0.031 0.55,0.057 0.828,0.088 0.591,0.059 1.187,0.117 1.779,0.178 1.385,0.135 2.767,0.253 4.154,0.353 1.368,0.098 2.742,0.165 4.108,0.291 1.011,0.098 2.044,0.227 2.981,0.639 0.871,0.381 1.601,0.994 2.337,1.583 0.926,0.743 1.888,1.45 2.979,1.933 1.054,0.467 2.26,0.756 3.41,0.533 1.114,-0.215 1.999,-1.231 1.683,-2.393 -0.414,-1.529 -2.446,-1.645 -3.732,-1.775 -2.284,-0.233 -4.638,-0.213 -6.783,-1.174 -1.253,-0.561 -1.879,-1.904 -2.786,-2.863 -1.196,-1.266 -2.611,-2.303 -3.795,-3.582 -1.014,-1.088 -2,-2.182 -3.053,-3.233 -3.396,-3.391 0.551,-9.25 2.632,-12.179 1.76,-2.478 3.525,-4.963 5.451,-7.314 0.859,-1.049 1.734,-2.122 2.771,-3.002 C -11.226,2.497 -10.74,1.844 -9.328,1.55 -6.769,1.015 -2.283,1.886 0,0"
         style="fill:#df0030;fill-opacity:1;fill-rule:nonzero;stroke:none"
         id="path5211"
         inkscape:connector-curvature="0" />
    </g>
    <g
       id="g5213"
       transform="matrix(0.17461373,0,0,-0.17461373,101.27045,164.79477)">
      <path
         d="m 0,0 c -0.036,-0.062 -0.068,-0.127 -0.098,-0.198 -0.691,-1.681 0.781,-2.526 2.205,-2.52 3.108,0.014 5.07,2.466 7.724,3.627 1.157,0.507 2.406,0.707 3.642,0.912 0.66,0.11 1.9,0.479 2.422,-0.133 0.495,-0.583 0.879,-1.27 1.386,-1.851 0.626,-0.72 1.279,-0.921 2.2,-0.672 0.879,0.239 1.489,0.346 2.376,0.054 1.99,-0.655 3.801,-1.795 5.604,-2.835 0.77,-0.445 1.187,-0.743 2.114,-0.732 1.406,0.019 2.738,-0.113 4.132,-0.251 1.243,-0.122 2.433,0.103 3.635,0.407 1.046,0.266 1.961,0.463 2.925,-0.158 0.408,-0.263 0.725,-0.532 1.011,-0.924 0.956,-1.311 2.155,-2.495 2.98,-3.895 0.855,-1.452 0.564,-2.87 0.919,-4.447 0.62,-2.758 1.712,-5.543 2.953,-8.078 0.333,-0.681 0.891,-2.147 1.851,-2.048 1.773,0.184 1.54,3.681 1.335,4.785 -0.494,2.623 -2.509,4.197 -3.767,6.397 -0.761,1.329 -1.617,2.525 -1.543,4.126 0.087,1.933 1.234,11.951 0.009,16.109 -1.226,4.159 -7.424,16.224 -8.415,17.218 -0.944,0.944 0.339,2.836 0.788,3.671 0.742,1.377 1.405,2.576 2.757,3.451 0.876,0.568 1.858,0.866 2.773,1.351 0.989,0.525 1.984,1.057 2.892,1.715 0.961,0.699 1.549,1.53 2.172,2.541 0.769,1.249 1.544,2.508 3.124,2.708 1.304,0.165 2.574,0.095 3.844,0.522 0.805,0.27 1.531,0.721 2.081,1.381 1.769,2.121 2.417,3.926 1.349,4.555 -1.067,0.63 -7.002,-3.927 -7.895,-4.997 -0.894,-1.072 -2.224,-1.177 -3.975,-1.177 -1.752,0 -6.703,-2.183 -8.472,-2.183 -0.842,0 -1.799,-0.259 -2.45,0.403 -0.891,0.904 -1.447,2.28 -1.923,3.436 -0.273,0.664 -0.473,1.38 -0.181,2.072 0.278,0.66 0.849,1.196 1.272,1.763 0.573,0.768 1.043,1.601 1.396,2.495 0.645,1.634 0.934,3.412 1.21,5.141 0.265,1.652 0.449,3.643 -0.725,5.012 -1.47,1.715 -4.089,1.214 -5.932,0.498 -2.527,-0.983 -4.689,-2.697 -6.775,-4.393 -1.892,-1.535 -3.926,-2.941 -5.77,-4.527 -0.315,-0.272 -0.645,-0.526 -0.3,-0.885 0.416,-0.43 1.448,-0.543 1.994,-0.639 2.495,-0.441 4.682,0.295 6.857,1.475 0.743,0.404 1.781,1.15 2.683,0.936 0.974,-0.232 1.293,-1.543 1.507,-2.365 0.57,-2.174 1.312,-4.871 0.257,-6.999 -0.824,-1.661 -1.961,-1.844 -3.063,-1.739 -4.023,0.384 -8.383,-0.255 -12.122,1.621 -0.976,0.491 -1.83,1.178 -2.439,2.096 -0.948,1.432 -0.894,3.183 -1.565,4.717 -0.492,1.121 -1.861,2.336 -3.145,1.569 -1.209,-0.722 -0.599,-2.233 -0.089,-3.202 0.627,-1.192 1.375,-2.588 2.281,-3.58 0.972,-1.065 2.281,-1.564 3.561,-2.144 0.72,-0.326 1.467,-0.697 2.108,-1.164 1.033,-0.752 1.919,-1.737 2.874,-2.582 1.187,-1.052 2.404,-2.066 3.676,-3.014 0.804,-0.598 1.629,-1.169 2.478,-1.699 1.408,-0.883 1.725,-3.326 2.074,-4.764 0.367,-1.512 0.631,-3.375 -1.154,-3.822 -1.194,-0.299 -2.505,0.013 -3.717,-0.101 -2.378,-0.224 -4.512,-1.141 -6.39,-2.612 -1.6,-1.258 -2.799,-2.853 -4.176,-4.33 -1.221,-1.307 -2.898,-2.37 -3.855,-3.9 C 7.405,9.863 9.225,7.596 11.058,5.883 13.153,3.924 9.479,3.083 7.812,2.637 5.87,2.115 3.905,1.841 1.999,1.16 1.287,0.905 0.41,0.685 0,0"
         style="fill:#231f20;fill-opacity:1;fill-rule:nonzero;stroke:none"
         id="path5215"
         inkscape:connector-curvature="0" />
    </g>
    <g
       id="g5217"
       transform="matrix(0.17461373,0,0,-0.17461373,107.78913,160.35661)"
       style="fill:#df0030;fill-opacity:1">
      <path
         d="m 0,0 c -0.259,-0.233 -1.147,-0.416 -1.633,-0.497 -2.327,-0.384 -4.852,-0.596 -7.253,-0.76 -3.233,-0.221 -6.364,-0.107 -9.405,1.111 -0.825,0.329 -1.624,0.714 -2.411,1.12 -2.281,1.175 -4.501,2.068 -7.112,2.047 -0.812,-0.006 -1.624,-0.082 -2.427,-0.196 -0.722,-0.104 -1.472,-0.102 -2.161,-0.365 0.394,0.223 0.767,0.5 1.18,0.694 0.528,0.251 1.075,0.465 1.64,0.62 1.229,0.336 2.519,0.397 3.783,0.232 2.513,-0.328 4.667,-1.62 6.995,-2.516 3.402,-1.308 6.786,-1.622 10.408,-1.354 0.995,0.074 1.988,0.183 2.979,0.301 C -3.98,0.61 -1.84,0.908 -0.451,0.47 0.083,0.301 0.156,0.142 0,0"
         style="fill:#df0030;fill-opacity:1;fill-rule:nonzero;stroke:none"
         id="path5219"
         inkscape:connector-curvature="0" />
    </g>
    <g
       id="g5221"
       transform="matrix(0.17461373,0,0,-0.17461373,107.62356,160.38184)"
       style="fill:#df0030;fill-opacity:1">
      <path
         d="m 0,0 c -0.062,-0.294 -0.511,-0.68 -0.764,-0.87 -1.215,-0.915 -2.613,-1.701 -3.956,-2.41 -1.398,-0.739 -2.945,-1.362 -4.555,-1.294 -2.376,0.099 -4.442,1.771 -6.826,1.625 -1.608,-0.099 -2.836,-1.1 -3.988,-2.128 0.408,0.365 0.467,1.052 0.748,1.501 0.331,0.526 0.867,0.945 1.409,1.236 1.147,0.617 2.565,0.648 3.793,0.247 1.89,-0.615 3.687,-1.209 5.707,-0.914 1.841,0.266 3.545,1.218 5.087,2.213 0.774,0.499 1.913,1.284 2.898,1.161 C -0.068,0.321 0.037,0.177 0,0"
         style="fill:#df0030;fill-opacity:1;fill-rule:nonzero;stroke:none"
         id="path5223"
         inkscape:connector-curvature="0" />
    </g>
  </g>
</svg>
